…
There are 935 observations and 26 variables. Note that I could also just
see this in the environment, but this code produced the information as
well.

### Exercise 2

``` r
# making sure the simplest command works
nobel %>%
  count (country)
```

    ## # A tibble: 28 × 2
    ##    country            n
    ##    <chr>          <int>
    ##  1 Argentina          2
    ##  2 Australia          4
    ##  3 Austria            6
    ##  4 Belgium            5
    ##  5 Canada             8
    ##  6 China              1
    ##  7 Czech Republic     1
    ##  8 Denmark            8
    ##  9 Finland            1
    ## 10 France            38
    ## # ℹ 18 more rows

``` r
# seeing if I am filtering for na appropriately
nobel_subset <- nobel %>%
  filter(!is.na(country))
nobel_subset %>%
  count (country)
```

    ## # A tibble: 27 × 2
    ##    country            n
    ##    <chr>          <int>
    ##  1 Argentina          2
    ##  2 Australia          4
    ##  3 Austria            6
    ##  4 Belgium            5
    ##  5 Canada             8
    ##  6 China              1
    ##  7 Czech Republic     1
    ##  8 Denmark            8
    ##  9 Finland            1
    ## 10 France            38
    ## # ℹ 17 more rows
…
    ## # A tibble: 2 × 2
    ##   gender     n
    ##   <chr>  <int>
    ## 1 female    52
    ## 2 male     856

``` r
# now filtering for alive people
nobel_subset3 <- nobel %>%
  filter(!is.na(died_date))
nobel_subset3 %>%
  count (died_date)
```

    ## # A tibble: 616 × 2
    ##    died_date      n
    ##    <date>     <int>
    ##  1 1903-11-01     1
    ##  2 1904-09-24     1
    ##  3 1906-04-19     1
    ##  4 1906-12-07     1
    ##  5 1907-02-16     1
    ##  6 1907-02-20     1
    ##  7 1907-09-07     1
    ##  8 1908-07-22     1
    ##  9 1908-08-25     1
    ## 10 1910-04-26     1
    ## # ℹ 606 more rows
…
    ## [1] "Number of rows: 453"

``` r
print(paste("Number of columns:", number_of_columns))
```

    ## [1] "Number of columns: 26"

``` r
# I have 453 observations, so something is wrong.
nobel_living %>%
  count (country)
```

    ## # A tibble: 25 × 2
    ##    country            n
    ##    <chr>          <int>
    ##  1 Argentina          2
    ##  2 Australia          2
    ##  3 Austria            6
    ##  4 Belgium            4
    ##  5 Canada             5
    ##  6 Czech Republic     1
    ##  7 Denmark            7
    ##  8 Finland            1
    ##  9 France            27
    ## 10 Germany           55
    ## # ℹ 15 more rows
…
    ## # A tibble: 2 × 2
    ##   gender     n
    ##   <chr>  <int>
    ## 1 female    10
    ## 2 male     443

``` r
nobel_living %>%
  count (died_date)
```

    ## # A tibble: 444 × 2
    ##    died_date      n
    ##    <date>     <int>
    ##  1 1904-09-24     1
    ##  2 1906-04-19     1
    ##  3 1907-02-20     1
    ##  4 1908-08-25     1
    ##  5 1910-05-27     1
    ##  6 1911-03-01     1
    ##  7 1915-08-20     1
    ##  8 1916-07-15     1
    ##  9 1916-07-23     1
    ## 10 1917-03-31     1
    ## # ℹ 434 more rows
…
``` r
#assuming we're still working with living laureates in the sciences
nobel_living_science_finalfilter <- nobel_living_science %>%
  filter (
    country_us == "USA" ,
    country_us_born == "Other"
  )
nobel_living_science_finalfilter %>%
  count (born_country) %>%
  arrange(desc(n))
```

    ## # A tibble: 27 × 2
    ##    born_country       n
    ##    <chr>          <int>
    ##  1 Canada             8
    ##  2 United Kingdom     8
    ##  3 Poland             6
    ##  4 France             4
    ##  5 Hungary            4
    ##  6 Italy              4
    ##  7 Russia             4
    ##  8 Austria            3
    ##  9 Germany            3
    ## 10 South Africa       3
    ## # ℹ 17 more rows
…
